<?xml version="1.0" encoding="UTF-8" standalone="no"?>
<svg
   xmlns:dc="http://purl.org/dc/elements/1.1/"
   xmlns:cc="http://creativecommons.org/ns#"
   xmlns:rdf="http://www.w3.org/1999/02/22-rdf-syntax-ns#"
   xmlns:svg="http://www.w3.org/2000/svg"
   xmlns="http://www.w3.org/2000/svg"
   width="125"
   height="23.955688"
   viewBox="0 0 33.072916 6.3382759"
   version="1.1"
   id="svg201">
  <defs
     id="defs195" />
  <metadata
     id="metadata198">
    <rdf:RDF>
      <cc:Work
         rdf:about="">
        <dc:format>image/svg+xml</dc:format>
        <dc:type
           rdf:resource="http://purl.org/dc/dcmitype/StillImage" />
        <dc:title></dc:title>
      </cc:Work>
    </rdf:RDF>
  </metadata>
  <g
     id="layer1"
     transform="matrix(0.52083333,0,0,0.52083333,-33.873804,-55.128568)">
    <g
       transform="matrix(0.97752011,0,0,0.97752011,55.548053,-167.58483)"
       id="g134">
      <path
         id="path88"
         style="font-style:normal;font-variant:normal;font-weight:800;font-stretch:normal;font-size:13.01756477px;line-height:1.25;font-family:'Mplus 1p';-inkscape-font-specification:'Mplus 1p, Ultra-Bold';font-variant-ligatures:normal;font-variant-caps:normal;font-variant-numeric:normal;font-feature-settings:normal;text-align:start;letter-spacing:0px;word-spacing:0px;writing-mode:lr-tb;text-anchor:start;fill:#cc6600;fill-opacity:1;stroke:none;stroke-width:0.3254391"
         d="m 15.084137,279.73732 v 1.47099 h -0.598808 q -0.794071,0 -1.002352,0.20828 -0.195264,0.19526 -0.195264,1.02839 v 1.30175 q 0,0.89821 -0.338457,1.39288 -0.338456,0.48165 -1.11951,0.79407 v 0.026 q 0.781054,0.31242 1.11951,0.80709 0.338457,0.49467 0.338457,1.39288 v 1.30175 q 0,0.83313 0.195264,1.02839 0.208281,0.20828 1.002352,0.20828 h 0.598808 v 1.47099 h -1.60116 q -1.119511,0 -1.614178,-0.49467 -0.494668,-0.49467 -0.494668,-1.65323 v -1.79642 q 0,-0.82011 -0.260351,-1.14555 -0.260351,-0.33846 -0.885195,-0.33846 H 9.7078828 v -1.57512 h 0.5207022 q 0.624844,0 0.885195,-0.32544 0.260351,-0.33846 0.260351,-1.15857 v -1.79642 q 0,-1.15856 0.494668,-1.65323 0.494667,-0.49467 1.614178,-0.49467 z" />
      <path
         id="path90"
         style="font-style:normal;font-variant:normal;font-weight:normal;font-stretch:normal;font-size:medium;line-height:1.25;font-family:'Mplus 1p';-inkscape-font-specification:'Mplus 1p';font-variant-ligatures:normal;font-variant-caps:normal;font-variant-numeric:normal;font-feature-settings:normal;text-align:start;letter-spacing:0px;word-spacing:0px;writing-mode:lr-tb;text-anchor:start;fill:#cc6600;fill-opacity:1;stroke:none;stroke-width:0.3254391"
         d="m 20.957055,285.3648 -2.147898,0.67691 1.340809,1.79643 -0.676914,0.49467 -1.301756,-1.83548 -1.288739,1.83548 -0.676913,-0.49467 1.340809,-1.79643 -2.147898,-0.67691 0.260351,-0.79407 2.134881,0.72898 -0.03905,-2.25204 h 0.833124 l -0.02604,2.25204 2.13488,-0.72898 z" />
      <path
         id="path92"
         style="font-style:normal;font-variant:normal;font-weight:800;font-stretch:normal;font-size:13.01756477px;line-height:1.25;font-family:'Mplus 1p';-inkscape-font-specification:'Mplus 1p, Ultra-Bold';font-variant-ligatures:normal;font-variant-caps:normal;font-variant-numeric:normal;font-feature-settings:normal;text-align:start;letter-spacing:0px;word-spacing:0px;writing-mode:lr-tb;text-anchor:start;fill:#cc6600;fill-opacity:1;stroke:none;stroke-width:0.3254391"
         d="m 21.096697,279.73732 h 1.60116 q 1.119511,0 1.614178,0.49467 0.494668,0.49467 0.494668,1.65323 v 1.79642 q 0,0.82011 0.260351,1.15857 0.260351,0.32544 0.885194,0.32544 h 0.520703 v 1.57512 h -0.520703 q -0.624843,0 -0.885194,0.33846 -0.260351,0.32544 -0.260351,1.14555 v 1.79642 q 0,1.15856 -0.494668,1.65323 -0.494667,0.49467 -1.614178,0.49467 h -1.60116 v -1.47099 h 0.611825 q 0.794072,0 0.989335,-0.20828 0.195264,-0.19526 0.195264,-1.02839 v -1.30175 q 0,-0.89821 0.338456,-1.39288 0.338457,-0.49467 1.119511,-0.80709 v -0.026 q -0.781054,-0.31242 -1.119511,-0.79407 -0.338456,-0.49467 -0.338456,-1.39288 v -1.30175 q 0,-0.83313 -0.195264,-1.02839 -0.195263,-0.20828 -0.989335,-0.20828 h -0.611825 z" />
      <path
         id="path94"
         style="font-style:normal;font-variant:normal;font-weight:500;font-stretch:normal;font-size:12.69558716px;line-height:1.25;font-family:'Mplus 1p';-inkscape-font-specification:'Mplus 1p, Medium';font-variant-ligatures:normal;font-variant-caps:normal;font-variant-numeric:normal;font-feature-settings:normal;text-align:start;letter-spacing:-1.11086392px;word-spacing:0px;writing-mode:lr-tb;text-anchor:start;fill:#ffffff;fill-opacity:1;stroke:none;stroke-width:0.31738967"
         d="m 29.423494,289.051 v -6.41127 h 1.345733 v 6.3478 q 0,1.85355 -0.736344,2.51372 -0.723649,0.66017 -2.754943,0.66017 l -0.06348,-1.04103 q 1.358428,0 1.777382,-0.39357 0.43165,-0.39356 0.43165,-1.67582 z m 0,-7.93474 v -1.39651 h 1.345733 v 1.39651 z" />
      <path
         id="path96"
         style="font-style:normal;font-variant:normal;font-weight:500;font-stretch:normal;font-size:12.69558716px;line-height:1.25;font-family:'Mplus 1p';-inkscape-font-specification:'Mplus 1p, Medium';font-variant-ligatures:normal;font-variant-caps:normal;font-variant-numeric:normal;font-feature-settings:normal;text-align:start;letter-spacing:-1.11086392px;word-spacing:0px;writing-mode:lr-tb;text-anchor:start;fill:#ffffff;fill-opacity:1;stroke:none;stroke-width:0.31738967"
         d="m 36.633001,283.99816 q -0.825213,-0.44434 -1.713904,-0.44434 -0.977561,0 -1.536166,0.62208 -0.558606,0.62208 -0.558606,1.76469 0,1.11721 0.583997,1.76468 0.596692,0.64748 1.510775,0.64748 0.888691,0 1.713904,-0.44435 l 0.31739,1.01565 q -1.015647,0.44434 -2.094772,0.44434 -1.49808,0 -2.437553,-0.92677 -0.926778,-0.92678 -0.926778,-2.50103 0,-1.61234 0.888691,-2.51373 0.888691,-0.91408 2.47564,-0.91408 1.079125,0 2.094772,0.44434 z" />
      <path
         id="path98"
         style="font-style:normal;font-variant:normal;font-weight:500;font-stretch:normal;font-size:12.69558716px;line-height:1.25;font-family:'Mplus 1p';-inkscape-font-specification:'Mplus 1p, Medium';font-variant-ligatures:normal;font-variant-caps:normal;font-variant-numeric:normal;font-feature-settings:normal;text-align:start;letter-spacing:-1.11086392px;word-spacing:0px;writing-mode:lr-tb;text-anchor:start;fill:#ffffff;fill-opacity:1;stroke:none;stroke-width:0.31738967"
         d="m 38.750586,282.63973 0.02539,0.88869 h 0.02539 q 0.723648,-1.01564 1.663122,-1.01564 1.206081,0 1.764687,1.1426 h 0.02539 q 0.749039,-1.1426 1.891642,-1.1426 1.041038,0 1.536166,0.59669 0.495128,0.59669 0.495128,1.94242 v 4.18955 h -1.244167 v -3.80868 q 0,-1.11721 -0.241217,-1.51077 -0.241216,-0.39357 -0.863299,-0.39357 -0.52052,0 -0.926778,0.57131 -0.406259,0.5586 -0.406259,1.33303 v 3.80868 h -1.244168 v -3.80868 q 0,-1.11721 -0.241216,-1.51077 -0.241216,-0.39357 -0.8633,-0.39357 -0.520519,0 -0.926778,0.57131 -0.406258,0.5586 -0.406258,1.33303 v 3.80868 h -1.269559 v -6.60171 z" />
      <path
         id="path100"
         style="font-style:normal;font-variant:normal;font-weight:500;font-stretch:normal;font-size:12.69558716px;line-height:1.25;font-family:'Mplus 1p';-inkscape-font-specification:'Mplus 1p, Medium';font-variant-ligatures:normal;font-variant-caps:normal;font-variant-numeric:normal;font-feature-settings:normal;text-align:start;letter-spacing:-1.11086392px;word-spacing:0px;writing-mode:lr-tb;text-anchor:start;fill:#ffffff;fill-opacity:1;stroke:none;stroke-width:0.31738967"
         d="m 50.758825,285.96598 h -0.634779 q -1.142603,0 -1.764687,0.39356 -0.609388,0.39356 -0.609388,1.04104 0,0.46974 0.279303,0.74904 0.291999,0.26661 0.761735,0.26661 0.799822,0 1.383819,-0.54591 0.583997,-0.55861 0.583997,-1.35843 z m -4.253021,1.49808 q 0,-1.10452 0.926777,-1.76469 0.939474,-0.67287 2.691465,-0.67287 h 0.634779 v -0.0635 q 0,-0.79983 -0.330085,-1.11722 -0.31739,-0.31739 -1.129907,-0.31739 -1.206081,0 -2.221728,0.57131 l -0.190434,-1.01565 q 1.06643,-0.5713 2.412162,-0.5713 1.434601,0 2.082076,0.58399 0.647475,0.57131 0.647475,1.82817 v 2.53912 q 0,0.90138 0.190434,1.77738 h -1.206081 q -0.101565,-0.55861 -0.11426,-1.01565 h -0.02539 q -0.355477,0.53322 -0.990256,0.83791 -0.622084,0.30469 -1.40921,0.30469 -0.901387,0 -1.434602,-0.50782 -0.533214,-0.50782 -0.533214,-1.39651 z" />
      <path
         id="path102"
         style="font-style:normal;font-variant:normal;font-weight:500;font-stretch:normal;font-size:12.69558716px;line-height:1.25;font-family:'Mplus 1p';-inkscape-font-specification:'Mplus 1p, Medium';font-variant-ligatures:normal;font-variant-caps:normal;font-variant-numeric:normal;font-feature-settings:normal;text-align:start;letter-spacing:-1.11086392px;word-spacing:0px;writing-mode:lr-tb;text-anchor:start;fill:#ffffff;fill-opacity:1;stroke:none;stroke-width:0.31738967"
         d="m 57.120505,282.51278 v 1.06643 q -1.396515,0 -2.209032,0.76173 -0.812518,0.74904 -0.812518,1.98051 v 2.91999 h -1.29495 v -6.60171 h 1.231472 l 0.02539,1.26956 h 0.02539 q 1.167994,-1.39651 3.034245,-1.39651 z" />
      <path
         id="path104"
         style="font-style:normal;font-variant:normal;font-weight:500;font-stretch:normal;font-size:12.69558716px;line-height:1.25;font-family:'Mplus 1p';-inkscape-font-specification:'Mplus 1p, Medium';font-variant-ligatures:normal;font-variant-caps:normal;font-variant-numeric:normal;font-feature-settings:normal;text-align:start;letter-spacing:-1.11086392px;word-spacing:0px;writing-mode:lr-tb;text-anchor:start;fill:#ffffff;fill-opacity:1;stroke:none;stroke-width:0.31738967"
         d="m 59.96868,282.89364 h 2.38677 v 1.01565 h -2.38677 v 3.04694 q 0,0.82522 0.215825,1.11721 0.215825,0.27931 0.774431,0.27931 0.634779,0 1.142603,-0.22852 l 0.190433,0.99025 q -0.723648,0.25391 -1.52347,0.25391 -1.117212,0 -1.61234,-0.49512 -0.482432,-0.49513 -0.482432,-1.66313 v -3.30085 h -1.396514 v -1.01565 h 1.396514 v -2.41216 h 1.29495 z" />
      <path
         id="path106"
         style="font-style:normal;font-variant:normal;font-weight:500;font-stretch:normal;font-size:12.69558716px;line-height:1.25;font-family:'Mplus 1p';-inkscape-font-specification:'Mplus 1p, Medium';font-variant-ligatures:normal;font-variant-caps:normal;font-variant-numeric:normal;font-feature-settings:normal;text-align:start;letter-spacing:-1.11086392px;word-spacing:0px;writing-mode:lr-tb;text-anchor:start;fill:#ffffff;fill-opacity:1;stroke:none;stroke-width:0.31738967"
         d="m 63.523841,281.11626 v -1.39651 h 1.345732 v 1.39651 z m 0,8.12518 v -6.60171 h 1.345732 v 6.60171 z" />
      <path
         id="path108"
         style="font-style:normal;font-variant:normal;font-weight:500;font-stretch:normal;font-size:12.69558716px;line-height:1.25;font-family:'Mplus 1p';-inkscape-font-specification:'Mplus 1p, Medium';font-variant-ligatures:normal;font-variant-caps:normal;font-variant-numeric:normal;font-feature-settings:normal;text-align:start;letter-spacing:-1.11086392px;word-spacing:0px;writing-mode:lr-tb;text-anchor:start;fill:#ffffff;fill-opacity:1;stroke:none;stroke-width:0.31738967"
         d="m 67.241268,282.63973 0.02539,0.88869 h 0.02539 q 0.723648,-1.01564 1.663122,-1.01564 1.20608,0 1.764686,1.1426 h 0.02539 q 0.74904,-1.1426 1.891643,-1.1426 1.041038,0 1.536166,0.59669 0.495128,0.59669 0.495128,1.94242 v 4.18955 h -1.244168 v -3.80868 q 0,-1.11721 -0.241216,-1.51077 -0.241216,-0.39357 -0.8633,-0.39357 -0.520519,0 -0.926778,0.57131 -0.406259,0.5586 -0.406259,1.33303 v 3.80868 h -1.244167 v -3.80868 q 0,-1.11721 -0.241216,-1.51077 -0.241216,-0.39357 -0.8633,-0.39357 -0.520519,0 -0.926778,0.57131 -0.406259,0.5586 -0.406259,1.33303 v 3.80868 h -1.269559 v -6.60171 z" />
    </g>
  </g>
</svg>
